"UnlitGeneric"
//"Modulate"
{
	"$baseTexture" "Models/player/techknow/ironman_v3/flame"	
	"$additive" "1"
	"$model" "1"
	"$selfillum" 1
	
	"Proxies"
	{

		"TextureScroll"
		{
			"texturescrollvar" "$basetexturetransform"
			"texturescrollrate" 7
			"texturescrollangle" -270
		}


	}

}

