"VertexlitGeneric"
{
	"$basetexture" "models/player/slow/amberlyn/lotr/gimli/slow_skirt"
	"$bumpmap"  "models/player/slow/amberlyn/lotr/gimli/slow_skirt_bump"

	"$nocull" 1

 	"$phong" "1"
	"$phongexponent" "7"
	"$phongboost"	"8"
	"$phongfresnelranges"	"[.15 .5 1]"
}
