"VertexlitGeneric"
{
	"$basetexture" "models/player/slow/amberlyn/lotr/gimli/slow_armor"
	"$bumpmap"  "models/player/slow/amberlyn/lotr/gimli/slow_armor_bump"

	"$envmap" "env_cubemap"
	"$normalmapalphaenvmapmask" 1
	"$envmaptint" "{255 215 0}" 
	"$envmapcontrast" .35
	"$envmapsaturation" 1
}