models/cs_horror/hostage.mdl
models/cs_horror/horror_tree2.mdl
models/cs_horror/horror_tree1.mdl
models/cs_horror/horror_statue.mdl
models/cs_horror/horror_outlamp1.mdl
models/cs_horror/horror_bulb.mdl
sound/ambience/horror_crows.wav
sound/ambience/horror_ghosts.wav
sound/ambience/horror_howl.wav
sound/ambience/horror_swamp.wav
cs_addams.wad
sprites/cs_horror/horror_fire.spr
sprites/cs_horror/horror_fumee.spr
sprites/cs_horror/horror_glow.spr