// de_bikinibottom.res - created with RESGen v2.0.2.
// RESGen is made by Jeroen "ShadowLord" Bogers,
// with serveral improvements and additions by Zero3Cool.
// For more info go to http://resgen.hltools.com

// .res entries (31):
gfx/env/sqpantsbk.tga
gfx/env/sqpantsdn.tga
gfx/env/sqpantsft.tga
gfx/env/sqpantslf.tga
gfx/env/sqpantsrt.tga
gfx/env/sqpantsup.tga
models/bikbot/boatmobile.mdl
models/bikbot/bus.mdl
models/bikbot/chumb.mdl
models/bikbot/coral.mdl
models/bikbot/jelly.mdl
models/bikbot/jellyfish.mdl
models/bikbot/krusty_krab.mdl
models/bikbot/multicoral.mdl
models/bikbot/PatrickH.mdl
models/bikbot/singlecoral.mdl
models/bikbot/spongeh.mdl
models/bikbot/Squidh.mdl
sound/bikibot/achterhoek.wav
sound/bikibot/ambience.wav
sound/bikibot/boyngirl.wav
sound/bikibot/dutchman.wav
sound/bikibot/foghorn.wav
sound/bikibot/hawaiian.wav
sound/bikibot/jellykill.wav
sound/bikibot/patrick.wav
sprites/bikinibottom/dutch.spr
sprites/bikinibottom/seaweed.spr
maps/bikinibottom.nav
overviews/de_bikinibottom.bmp
overviews/de_bikinibottom.txt