// de_simpsons.res
// .res entries:

0soup0_simpsons.wad
gfx/env/simpsonsup.tga
gfx/env/simpsonsdn.tga
gfx/env/simpsonslf.tga
gfx/env/simpsonsrt.tga
gfx/env/simpsonsft.tga
gfx/env/simpsonsbk.tga
sound/misc/simp.wav
sound/ambience/0Soup0_apunono.wav
sound/ambience/0Soup0_haha.wav
sound/ambience/0Soup0_lastchance.wav
sound/ambience/0Soup0_saucer.wav
sound/ambience/0Soup0_takeus.wav
sound/ambience/0Soup0_trekdoor.wav
sound/ambience/3dmhills.wav
sound/ambience/rocket_groan2.wav
sound/ambience/0Soup0_blabla.wav
sound/ambience/0Soup0_KodosKang_laugh.wav
sound/ambience/0Soup0_Monorail.wav
sound/ambience/0Soup0_simpsons.wav
sound/ambience/0Soup0_transporter.wav
sound/ambience/0Soup0_watchus.wav
sound/ambience/drips.wav
sound/ambience/rotormachine.wav
models/jeb.mdl
overviews/de_simpsons.tga
overviews/de_simpsons.txt
