maps/smb2_land_v2.bsp
maps/smb2_land_v2.txt
maps/smb2_land_v2.res
sound/smb2overworld.wav
sound/smb2selectplayer.wav
sound/smb2underground.wav
overviews/smb2_land.tga
overviews/smb2_land_v2.txt
gfx/env/smb2bk.tga
gfx/env/smb2dn.tga
gfx/env/smb2ft.tga
gfx/env/smb2lf.tga
gfx/env/smb2rt.tga
gfx/env/smb2up.tga
sprites/smb2cloud.spr
sprites/smb2plant.spr
sprites/smb2cherry.spr