"VertexlitGeneric"
{
	"$basetexture" "models/player/slow/amberlyn/lotr/nazgul/slow_clothes"
	"$bumpmap"  "models/player/slow/amberlyn/lotr/nazgul/slow_clothes_bump"


	"$nocull" 1
	"$alphatest" 1
}