"VertexLitGeneric"
{
        "$baseTexture" "models\player\techknow\masterchief\blue_mc"
        "$nocull" 1
	"$bumpmap" "models\player\techknow\masterchief\mc_n"
	"$phong" "1"
		"$phongboost"	"0.5"
		"$phongfresnelranges"	"[0.05 0.5 1]"
}

