"VertexlitGeneric"
{
	"$basetexture" "models/player/slow/jamis/mkvsdcu/batman/slow_batman"
	"$bumpmap" "models/player/slow/jamis/mkvsdcu/batman/slow_batman_bump"

 	"$phong" "1"
	"$phongexponent" "7"
	"$phongboost"	"1.5"
	"$phongfresnelranges"	"[.15 .45 1]"
}
