"VertexlitGeneric"
{
	"$basetexture" "models/player/slow/amberlyn/lotr/witch_king/slow_mask"
	"$bumpmap"	"models/player/slow/amberlyn/lotr/witch_king/slow_mask_bump"

	"$nocull" 1
	"$translucent" 1

	"$envmap" "env_cubemap"
	"$normalmapalphaenvmapmask" 1
	"$envmaptint" "[.8 .84 1]" 
	"$envmapcontrast" .9
	"$envmapsaturation" 1
}