"LightmappedGeneric"
{
	// Original shader: DecalBaseTimesLightmapAlphaBlend
	"$translucent" 1
	"$basetexture" "Decals/decalmetalspeaker002a"
	"$decal" 1
	"$decalscale" 0.15
	"%keywords" "borealis,c17downtown"
}
