"VertexlitGeneric"
{
	"$basetexture" "models/player/slow/amberlyn/lotr/sauron/slow_cape"
	"$bumpmap" "models/player/slow/amberlyn/lotr/sauron/slow_cape_bump"

	"$nocull" 1
	"$alphatest" 1

	"$envmap" "env_cubemap"
	"$normalmapalphaenvmapmask" 1
	"$envmaptint" "[0.79 .83 1]" 
	"$envmapcontrast" .95
	"$envmapsaturation" .75
}