VertexLitGeneric
{
$baseTexture "models\player\vad36tmnt\Raphael\gear"
$bumpmap "models\player\vad36tmnt\Raphael\gear_n"
$phongexponenttexture "models\player\vad36tmnt\Raphael\gear_s"
$rimmask 1
$nodecal "1"

$phong "15"
$phongexponent "10"
$phongboost ".15"	
$phongfresnelranges "[0.7 1 15]"
$phongalbedotint "1"
}