"VertexlitGeneric"
{
	"$basetexture" "models/player/slow/amberlyn/lotr/grima/slow_face"
	"$bumpmap" "models/player/slow/amberlyn/lotr/grima/slow_face_bump"

	"$envmap" "env_cubemap"
	"$normalmapalphaenvmapmask" 1
	"$envmaptint" "[1 1 1]" 
	"$envmapcontrast" .45
	"$envmapsaturation" 0.75
}