"UnlitGeneric"
{
	"$basetexture" "models/player/slow/amberlyn/lotr/balrog/slow_weapon"

	"$model" 1
	"$additive" 1

	"$envmap" "env_cubemap"
	"$normalmapalphaenvmapmask" 1
	"$envmaptint" "{230 200 36}" 
	"$envmapcontrast" 1
	"$envmapsaturation" 1
}