"VertexlitGeneric"
{
	"$basetexture" "models/player/slow/jamis/wolverine/slow_1"
	"$bumpmap"	"models/player/slow/jamis/wolverine/slow_1_bump"

 	"$phong" "1"
	"$phongexponent" "3"
	"$phongboost"	"1.5"
	"$phongfresnelranges"	"[1 .5 .5]"
}

